<?xml version="1.0" encoding="UTF-8" standalone="no"?>
<!DOCTYPE svg PUBLIC "-//W3C//DTD SVG 1.1//EN" "http://www.w3.org/Graphics/SVG/1.1/DTD/svg11.dtd">
<svg width="100%" height="100%" viewBox="0 0 257 69" version="1.1" xmlns="http://www.w3.org/2000/svg" xmlns:xlink="http://www.w3.org/1999/xlink" xml:space="preserve" xmlns:serif="http://www.serif.com/" style="fill-rule:evenodd;clip-rule:evenodd;stroke-linejoin:round;stroke-miterlimit:2;">
    <g transform="matrix(1,0,0,1,-332.855,-0.679213)">
        <g transform="matrix(1,0,0,1,-3678.76,-2119.6)">
            <text x="4077.86px" y="2172.25px" style="font-family:'Impact', sans-serif;font-stretch:condensed;font-size:50px;">RoboPlay</text>
        </g>
        <g transform="matrix(0.149666,0,0,0.134443,287.538,-34.0538)">
            <path d="M442.5,261.5C443.552,261.351 444.552,261.517 445.5,262C437.333,267.5 429.167,273 421,278.5C420.285,289.551 414.451,294.384 403.5,293C397.863,291.024 394.863,287.024 394.5,281C395.874,270.31 401.874,265.976 412.5,268C415.579,269.248 418.246,271.081 420.5,273.5C427.607,268.949 434.94,264.949 442.5,261.5Z" style="stroke:black;stroke-width:5.86px;"/>
        </g>
        <g transform="matrix(0.149666,0,0,0.134443,287.538,-34.0538)">
            <path d="M594.5,263.5C648.477,286.057 682.977,325.724 698,382.5C703.053,399.149 705.387,416.149 705,433.5C699.355,439.477 693.355,445.143 687,450.5C684.983,408.381 671.65,370.381 647,336.5C617.354,302.916 580.187,283.083 535.5,277C530.666,274.693 529.666,271.36 532.5,267C534.695,265.627 537.029,265.294 539.5,266C541.5,268.08 543.5,270.08 545.5,272C589.513,278.253 626.347,297.753 656,330.5C664.286,341.787 672.952,352.787 682,363.5C674.06,341.52 661.226,322.687 643.5,307C635.778,300.945 627.778,295.278 619.5,290C609.802,284.819 600.135,279.652 590.5,274.5C589.073,269.778 590.406,266.111 594.5,263.5Z" style="stroke:black;stroke-width:3.28px;"/>
        </g>
        <g transform="matrix(0.149666,0,0,0.134443,287.538,-34.0538)">
            <path d="M491.5,265.5C498.009,266.207 500.176,269.54 498,275.5C492.46,280.155 488.627,278.989 486.5,272C487.283,269.062 488.95,266.896 491.5,265.5Z" style="stroke:black;stroke-width:3.28px;"/>
        </g>
        <g transform="matrix(0.149666,0,0,0.134443,287.538,-34.0538)">
            <path d="M476.5,272.5C477.993,273.312 478.66,274.645 478.5,276.5C478.291,277.994 477.624,279.161 476.5,280C460.336,283.775 445.003,289.608 430.5,297.5C429.169,296.408 428.336,295.074 428,293.5C426.927,294.28 425.76,294.113 424.5,293C430.391,288.887 436.724,285.554 443.5,283C454.387,278.758 465.387,275.258 476.5,272.5Z" style="stroke:black;stroke-width:3.28px;"/>
        </g>
        <g transform="matrix(0.149666,0,0,0.134443,287.538,-34.0538)">
            <path d="M373.5,293.5C374.239,293.369 374.906,293.536 375.5,294C364.588,306.667 356.421,320.833 351,336.5C362.658,322.17 376.158,310.003 391.5,300C392.5,299.333 393.5,299.333 394.5,300C378.358,317.105 365.858,336.605 357,358.5C345.4,386.738 337.9,415.738 334.5,445.5C327.34,440.173 321.007,434.007 315.5,427C318.891,382.819 333.724,342.986 360,307.5C364.031,302.304 368.531,297.637 373.5,293.5Z" style="stroke:black;stroke-width:3.28px;"/>
        </g>
        <g transform="matrix(0.149666,0,0,0.134443,287.538,-34.0538)">
            <path d="M427.5,328.5C428.632,331.628 429.465,334.962 430,338.5C430.493,351.842 431.16,365.175 432,378.5C439.167,384.384 439.334,390.55 432.5,397C424.065,399.918 419.065,396.918 417.5,388C417.682,384.445 419.182,381.612 422,379.5C422.308,366.813 422.975,354.146 424,341.5C424.706,337.006 425.873,332.673 427.5,328.5Z" style="stroke:black;stroke-width:3.28px;"/>
        </g>
        <g transform="matrix(0.149666,0,0,0.134443,287.538,-34.0538)">
            <path d="M593.5,330.5C595.094,334.25 596.261,338.25 597,342.5C597.576,356.171 598.243,369.838 599,383.5C607.461,372.007 617.961,369.84 630.5,377C641.885,388.436 641.551,399.77 629.5,411C614.343,417.948 602.843,414.114 595,399.5C594.178,397.212 593.511,394.878 593,392.5C592.179,371.76 592.346,351.094 593.5,330.5Z" style="stroke:black;stroke-width:3.28px;"/>
        </g>
        <g transform="matrix(0.149666,0,0,0.134443,287.538,-34.0538)">
            <path d="M642.5,348.5C644.474,350.428 645.974,352.761 647,355.5C651.431,366.459 654.431,377.793 656,389.5C657.191,409.482 657.691,429.482 657.5,449.5C621.475,449.62 585.475,449.453 549.5,449C546.916,455.96 542.249,457.96 535.5,455C530.505,448.127 532.005,443.294 540,440.5C541.893,441.196 543.726,442.03 545.5,443C580.832,443.5 616.165,443.667 651.5,443.5C651.854,421.142 651.354,398.809 650,376.5C648.005,367.017 645.505,357.683 642.5,348.5Z" style="stroke:black;stroke-width:3.28px;"/>
        </g>
        <g transform="matrix(0.149666,0,0,0.134443,287.538,-34.0538)">
            <path d="M374.5,358.5C375.124,358.917 375.457,359.584 375.5,360.5C370.793,375.337 369.293,390.337 371,405.5C378.079,389.147 389.579,384.647 405.5,392C417.8,404.98 417.466,417.647 404.5,430C387.662,438.61 375.162,434.443 367,417.5C363.183,397.051 365.683,377.385 374.5,358.5Z" style="stroke:black;stroke-width:3.28px;"/>
        </g>
        <g transform="matrix(0.149666,0,0,0.134443,287.538,-34.0538)">
            <path d="M659.5,371.5C665.494,383.438 669.66,396.105 672,409.5C675.813,424.699 677.98,440.032 678.5,455.5C674.259,439.079 670.759,422.412 668,405.5C665.055,394.17 662.221,382.837 659.5,371.5Z" style="stroke:black;stroke-width:3.28px;"/>
        </g>
        <g transform="matrix(0.149666,0,0,0.134443,287.538,-34.0538)">
            <path d="M359.5,376.5C360.097,376.735 360.43,377.235 360.5,378C354.05,403.582 348.884,429.416 345,455.5C345.268,428.328 350.101,401.994 359.5,376.5Z" style="stroke:black;stroke-width:3.28px;"/>
        </g>
        <g transform="matrix(0.149666,0,0,0.134443,287.538,-34.0538)">
            <path d="M367.5,441.5C369.655,441.372 371.655,441.872 373.5,443C407.5,443.667 441.5,443.667 475.5,443C482.623,439.615 487.289,441.615 489.5,449C486.795,456.358 482.129,458.024 475.5,454C474.283,452.352 473.45,450.519 473,448.5C440.24,449.496 407.407,449.829 374.5,449.5C374.487,452.695 372.82,454.362 369.5,454.5C363.909,453.349 362.075,450.016 364,444.5C365.145,443.364 366.312,442.364 367.5,441.5Z" style="stroke:black;stroke-width:3.28px;"/>
        </g>
        <g transform="matrix(0.149666,0,0,0.134443,287.538,-34.0538)">
            <path d="M317.5,450.5C328.04,449.914 334.04,454.747 335.5,465C333.26,476.947 326.26,481.613 314.5,479C304.855,473.029 303.022,465.195 309,455.5C311.682,453.415 314.516,451.748 317.5,450.5Z" style="stroke:black;stroke-width:5.86px;"/>
        </g>
        <g transform="matrix(0.149666,0,0,0.134443,287.538,-34.0538)">
            <path d="M651.5,462.5C658.327,461.825 661.16,464.825 660,471.5C656.545,475.008 653.045,475.174 649.5,472C623.5,471.333 597.5,471.333 571.5,472C570.743,473.512 569.743,474.846 568.5,476C565.756,476.803 563.089,477.803 560.5,479C550.839,479.5 541.172,479.666 531.5,479.5L531.5,474.5C540.857,474.832 550.19,474.498 559.5,473.5C557.516,468.805 558.849,465.472 563.5,463.5C565.333,464.052 567,464.885 568.5,466C595.167,466.667 621.833,466.667 648.5,466C649.71,464.961 650.71,463.794 651.5,462.5Z" style="stroke:black;stroke-width:3.28px;"/>
        </g>
        <g transform="matrix(0.149666,0,0,0.134443,287.538,-34.0538)">
            <path d="M365.5,463.5C368.972,463.126 371.972,464.126 374.5,466.5C400.814,465.825 427.148,465.158 453.5,464.5C458.072,465.856 459.738,468.689 458.5,473C469.495,473.5 480.495,473.667 491.5,473.5L491.5,479.5C478.476,479.626 465.476,479.126 452.5,478C449.466,476.809 447.799,474.642 447.5,471.5C423.164,471.333 398.831,471.5 374.5,472C371.918,475.282 368.584,476.282 364.5,475C360.465,470.864 360.798,467.031 365.5,463.5Z" style="stroke:black;stroke-width:3.28px;"/>
        </g>
        <g transform="matrix(0.149666,0,0,0.134443,287.538,-34.0538)">
            <path d="M687.5,466.5C701.976,468.452 706.309,476.119 700.5,489.5C691.054,497.065 683.221,495.732 677,485.5C674.891,475.832 678.391,469.499 687.5,466.5Z" style="stroke:black;stroke-width:3.28px;"/>
        </g>
        <g transform="matrix(0.149666,0,0,0.134443,287.538,-34.0538)">
            <path d="M341.5,477.5C345.037,503.66 351.204,529.326 360,554.5C380.958,607.722 401.291,661.056 421,714.5C395.582,677.409 368.249,641.743 339,607.5C338.534,564.136 339.367,520.803 341.5,477.5Z" style="stroke:black;stroke-width:3.28px;"/>
        </g>
        <g transform="matrix(0.149666,0,0,0.134443,287.538,-34.0538)">
            <path d="M382.5,481.5C407.496,479.427 431.496,483.26 454.5,493C464.008,498.174 472.675,504.507 480.5,512C467.192,511.785 453.859,511.452 440.5,511C438.567,510.749 436.734,510.249 435,509.5C434.501,514.489 434.334,519.489 434.5,524.5L487.5,524.5C487.917,527.079 487.25,529.246 485.5,531C468.503,531.5 451.503,531.667 434.5,531.5C434.333,543.838 434.5,556.171 435,568.5C441.362,574.268 442.029,580.601 437,587.5C430.712,593.01 424.712,592.677 419,586.5C415.223,579.717 416.223,573.717 422,568.5C422.5,556.171 422.667,543.838 422.5,531.5L401.5,531.5C401.832,521.145 401.499,510.812 400.5,500.5C391.497,496.666 382.33,493.333 373,490.5C372.223,506.524 372.556,522.524 374,538.5C382.742,537.58 386.408,541.58 385,550.5C379.514,556.08 374.514,555.747 370,549.5C369.503,546.854 369.336,544.187 369.5,541.5L366.5,541.5C365.656,522.18 365.323,502.846 365.5,483.5C371.339,483.102 377.006,482.435 382.5,481.5Z" style="stroke:black;stroke-width:3.28px;"/>
        </g>
        <g transform="matrix(0.149666,0,0,0.134443,287.538,-34.0538)">
            <path d="M602.5,481.5C620.889,481.085 639.223,481.751 657.5,483.5C657.52,501.847 657.02,520.18 656,538.5C655.801,540.402 654.967,541.902 653.5,543C654.915,551.585 651.249,555.252 642.5,554C637.156,550.26 636.156,545.594 639.5,540C643.226,537.234 647.226,536.734 651.5,538.5C651.833,521.82 651.499,505.153 650.5,488.5C640.027,492.783 629.36,496.45 618.5,499.5L618.5,531.5L599.5,531.5C599.333,543.171 599.5,554.838 600,566.5C606.493,573.28 606.993,580.446 601.5,588C587.822,593.641 581.322,589.141 582,574.5C583.314,571.539 584.981,568.872 587,566.5C587.5,554.505 587.667,542.505 587.5,530.5L535.5,530.5L535.5,525.5L587.5,525.5C587.828,520.125 587.495,514.792 586.5,509.5C572.239,511.342 557.906,511.842 543.5,511C559.742,494.213 579.408,484.379 602.5,481.5Z" style="stroke:black;stroke-width:3.28px;"/>
        </g>
        <g transform="matrix(0.149666,0,0,0.134443,287.538,-34.0538)">
            <path d="M409.5,502.5C413.707,503.736 417.874,505.069 422,506.5C422.5,512.825 422.666,519.158 422.5,525.5L409.5,525.5L409.5,502.5Z" style="fill:rgb(250,250,250);stroke:black;stroke-width:3.28px;"/>
        </g>
        <g transform="matrix(0.149666,0,0,0.134443,287.538,-34.0538)">
            <path d="M610.5,502.5C612.465,509.76 613.132,517.427 612.5,525.5L599.5,525.5C599.17,519.132 599.504,512.798 600.5,506.5C604.138,505.672 607.471,504.339 610.5,502.5Z" style="fill:rgb(250,251,250);stroke:black;stroke-width:3.28px;"/>
        </g>
        <g transform="matrix(0.149666,0,0,0.134443,287.538,-34.0538)">
            <path d="M592.5,721.5C599.616,705.927 606.782,690.26 614,674.5C631.863,628.578 649.53,582.578 667,536.5C670.452,527.021 673.119,517.355 675,507.5C676.044,508.623 676.71,509.956 677,511.5C678.358,544.157 678.691,576.824 678,609.5C647.719,645.596 619.219,682.929 592.5,721.5Z" style="stroke:black;stroke-width:3.28px;"/>
        </g>
        <g transform="matrix(0.149666,0,0,0.134443,287.538,-34.0538)">
            <path d="M494.5,521.5C496.288,521.215 497.955,521.548 499.5,522.5C498.507,554.79 498.174,587.123 498.5,619.5L494.5,619.5L494.5,521.5Z" style="stroke:black;stroke-width:3.28px;"/>
        </g>
        <g transform="matrix(0.149666,0,0,0.134443,287.538,-34.0538)">
            <rect x="508.5" y="521.5" width="5" height="98" style="stroke:black;stroke-width:3.28px;"/>
        </g>
        <g transform="matrix(0.149666,0,0,0.134443,287.538,-34.0538)">
            <rect x="522.5" y="521.5" width="5" height="98" style="stroke:black;stroke-width:3.28px;"/>
        </g>
        <g transform="matrix(0.149666,0,0,0.134443,287.538,-34.0538)">
            <path d="M474.5,544.5C478.684,543.704 481.85,545.037 484,548.5C484.5,572.164 484.667,595.831 484.5,619.5L479.5,619.5L479.5,556.5C470.984,555.457 469.317,551.457 474.5,544.5Z" style="stroke:black;stroke-width:3.28px;"/>
        </g>
        <g transform="matrix(0.149666,0,0,0.134443,287.538,-34.0538)">
            <path d="M540.5,544.5C547.369,544.538 549.869,547.871 548,554.5C545.418,555.284 543.751,556.951 543,559.5C542.5,579.497 542.333,599.497 542.5,619.5L537.5,619.5C537.802,596.814 537.469,574.147 536.5,551.5C536.577,548.335 537.91,546.001 540.5,544.5Z" style="stroke:black;stroke-width:3.28px;"/>
        </g>
        <g transform="matrix(0.149666,0,0,0.134443,287.538,-34.0538)">
            <path d="M472.5,651.5C478.887,652.196 481.22,655.529 479.5,661.5C475.914,665.307 472.414,665.307 469,661.5C467.581,657.082 468.748,653.749 472.5,651.5Z" style="stroke:black;stroke-width:3.28px;"/>
        </g>
        <g transform="matrix(0.149666,0,0,0.134443,287.538,-34.0538)">
            <path d="M544.5,652.5C552.589,651.748 555.089,655.081 552,662.5C549.263,663.61 546.429,663.777 543.5,663C542.833,662 542.167,661 541.5,660C523.17,659.5 504.836,659.333 486.5,659.5L486.5,654.5C505.17,654.667 523.836,654.5 542.5,654C543.416,653.722 544.082,653.222 544.5,652.5Z" style="stroke:black;stroke-width:3.28px;"/>
        </g>
        <g transform="matrix(0.149666,0,0,0.134443,287.538,-34.0538)">
            <rect x="485.5" y="668.5" width="53" height="5" style="stroke:black;stroke-width:3.28px;"/>
        </g>
        <g transform="matrix(0.149666,0,0,0.134443,287.538,-34.0538)">
            <rect x="485.5" y="682.5" width="53" height="5" style="stroke:black;stroke-width:3.28px;"/>
        </g>
        <g transform="matrix(0.149666,0,0,0.134443,287.538,-34.0538)">
            <path d="M592.5,721.5C592.539,722.756 592.039,723.756 591,724.5C590.415,723.002 590.915,722.002 592.5,721.5Z" style="fill:rgb(56,45,30);stroke:black;stroke-width:3.28px;"/>
        </g>
        <g transform="matrix(0.149666,0,0,0.134443,287.538,-34.0538)">
            <path d="M417.5,746.5C418.449,745.848 419.615,745.514 421,745.5C450.774,748.213 480.608,749.88 510.5,750.5C538.574,749.882 566.574,748.382 594.5,746C566.262,753.685 537.762,760.185 509,765.5C478.375,759.718 447.875,753.385 417.5,746.5Z" style="stroke:black;stroke-width:3.28px;"/>
        </g>
    </g>
</svg>
